{"total":40,"per_page":"20","current_page":2,"last_page":2,"next_page_url":"https:\/\/catfact.ninja\/facts?page=3","prev_page_url":"https:\/\/catfact.ninja\/facts?page=1","from":21,"to":40,"data":[{"fact":"Cats have the largest eyes of any mammal.","length":41},{"fact":"A tomcat (male cat) can begin mating when he is between 7 and 10 months old.","length":76},{"fact":"A female cat will be pregnant for approximately 9 weeks or between 62 and 65 days from conception to delivery.","length":110},{"fact":"A cat lover is called an Ailurophilia (Greek: cat+lover).","length":57},{"fact":"Unlike other cats, lions have a tuft of hair at the end of their tails.","length":71},{"fact":"A cat\u2019s jaw can\u2019t move sideways, so a cat can\u2019t chew large chunks of food.","length":80},{"fact":"During the Middle Ages, cats were associated with withcraft, and on St. John\u2019s Day, people all over Europe would stuff them into sacks and toss the cats into bonfires. On holy days, people celebrated by tossing cats from church towers.","length":237},{"fact":"Neutering a cat extends its life span by two or three years.","length":60},{"fact":"A cat called Dusty has the known record for the most kittens. She had more than 420 kittens in her lifetime.","length":108},{"fact":"A cat has 230 bones in its body. A human has 206. A cat has no collarbone, so it can fit through any opening the size of its head.","length":130},{"fact":"Edward Lear, author of \\The Owl and the Pussycat\\\"\", is said to have had his new house in San Remo built to exactly the same specification as his previous residence, so that his much-loved tabby, Foss, would immediately feel at home.\"\"\"","length":236},{"fact":"The technical term for a cat\u2019s hairball is a \u201cbezoar.\u201d","length":60},{"fact":"Cats control the outer ear using 32 muscles; humans use 6","length":57},{"fact":"Retractable claws are a physical phenomenon that sets cats apart from the rest of the animal kingdom. I n the cat family, only cheetahs cannot retract their claws.","length":163},{"fact":"Kittens remain with their mother till the age of 9 weeks.","length":57},{"fact":"When a cats rubs up against you, the cat is marking you with it's scent claiming ownership.","length":91},{"fact":"There is a species of cat smaller than the average housecat. It is native to Africa and it is the Black-footed cat (Felis nigripes). Its top weight is 5.5 pounds.","length":162},{"fact":"Cats have 300 million neurons; dogs have about 160 million","length":58},{"fact":"Most cats had short hair until about 100 years ago, when it became fashionable to own cats and experiment with breeding.","length":120},{"fact":"You check your cats pulse on the inside of the back thigh, where the leg joins to the body. Normal for cats: 110-170 beats per minute.","length":134}]}