{"total":311,"per_page":"20","current_page":1,"last_page":2,"next_page_url":"https:\/\/catfact.ninja\/facts?page=2","prev_page_url":null,"from":1,"to":20,"data":[{"fact":"During the time of the Spanish Inquisition, Pope Innocent VIII condemned cats as evil and thousands of cats were burned. Unfortunately, the widespread killing of cats led to an explosion of the rat population, which exacerbated the effects of the Black Death.","length":259},{"fact":"In 1888, more than 300,000 mummified cats were found an Egyptian cemetery. They were stripped of their wrappings and carted off to be used by farmers in England and the U.S. for fertilizer.","length":189},{"fact":"Among many other diseases, cats can suffer from anorexia, senility, feline AIDS and acne.","length":89},{"fact":"Edward Lear, author of \\The Owl and the Pussycat\\\"\", is said to have had his new house in San Remo built to exactly the same specification as his previous residence, so that his much-loved tabby, Foss, would immediately feel at home.\"\"\"","length":236},{"fact":"A cat has approximately 60 to 80 million olfactory cells (a human has between 5 and 20 million).","length":96},{"fact":"The technical term for a cat\u2019s hairball is a \u201cbezoar.\u201d","length":60},{"fact":"The cat's front paw has 5 toes, but the back paws have 4. Some cats are born with as many as 7 front toes and extra back toes (polydactl).","length":138},{"fact":"The first cartoon cat was\u00a0Felix the Cat\u00a0in 1919. In 1940, Tom and Jerry starred in the first theatrical cartoon \u201cPuss Gets the Boot.\u201d In 1981 Andrew Lloyd Weber created the musical\u00a0Cats, based on T.S. Eliot\u2019s Old\u00a0Possum\u2019s Book of Practical Cats.","length":257},{"fact":"You check your cats pulse on the inside of the back thigh, where the leg joins to the body. Normal for cats: 110-170 beats per minute.","length":134},{"fact":"A cat's appetite is the barometer of its health. Any cat that does not eat or drink for more than two days should be taken to a vet.","length":132},{"fact":"All cats have three sets of long hairs that are sensitive to pressure - whiskers, eyebrows,and the hairs between their paw pads.","length":128},{"fact":"Cats often overract to unexpected stimuli because of their extremely sensitive nervous system.","length":94},{"fact":"Cats have \"nine lives\" thanks to a flexible spine and powerful leg and back muscles","length":83},{"fact":"Miacis, the primitive ancestor of cats, was a small, tree-living creature of the late Eocene period, some 45 to 50 million years ago.","length":133},{"fact":"The most expensive cat was an Asian Leopard cat (ALC)-Domestic Shorthair (DSH) hybrid named Zeus. Zeus, who is 90% ALC and 10% DSH, has an asking price of \u00a3100,000 ($154,000).","length":176},{"fact":"A group of cats is called a \u201cclowder.\u201d","length":42},{"fact":"A cat's normal pulse is 140-240 beats per minute, with an average of 195.","length":75},{"fact":"Long, muscular hind legs enable snow leopards to leap seven times their own body length in a single bound.","length":106},{"fact":"The silks created by weavers in Baghdad were inspired by the beautiful and varied colors and markings of cat coats. These fabrics were called \\tabby\\\" by European traders.\"\"\"","length":174},{"fact":"Every year, nearly four million cats are eaten in Asia. and this is really not something that is usual to many people, because rarely there is no body that eat cats but anyways this is what happens in Asia and it is not that happy for cat lovers.","length":55}]}